rostrum.blog - Make a {brickr} soccer player
…
    "O", 0, hair_col, hair_col, hair_col, 0,
    "O", 0, hair_col, hair_col, hair_col, 0,
    "O", 0, hair_col, hair_col, hair_col, 0
  )

}

Here’s what happens when you use the function with default arguments.

player_plan <- create_brickr_player()
player_plan  # preview the object

# A tibble: 45 × 6
   Level   `1`   `2`   `3`   `4`   `5`
   <chr> <dbl> <dbl> <dbl> <dbl> <dbl>
 1 A         0     0     0     0     0
 2 A         0     6     0     6     0
 3 A         0     6     0     6     0
 4 B         0     0     0     0     0
 5 B         0     3     0     3     0
 6 B         0     0     0     0     0
 7 C         0     0     0     0     0
 8 C         0     1     0     1     0
 9 C         0     0     0     0     0
10 D         0     0     0     0     0
# ℹ 35 more rows

Each layer of bricks gets a separate value in the Level column. The x-dimension is represented by the rows of the data frame and the y-dimension by the numbered columns.

Every non-zero number represents a brick and each value represents a different colour. For example, layer A has dimensions of 3 x 5 where 4 spots will be filled with a brick. Each of these has the value ‘2’, which encodes the colour black. Layer B, meanwhile, has a couple of bricks with value ‘7’, which is bright red.

How do you know which numbers encode which colours? You can access the codes from the lego_colors data frame in the {brickr} package.

select(lego_colors, brickrID, Color, hex)  # colour codes

# A tibble: 54 × 3
   brickrID Color             hex    
      <int> <chr>             <chr>  
 1        1 White             #F4F4F4
 2        2 Brick yellow      #CCB98D
 3        3 Bright red        #B40000
 4        4 Bright blue       #1E5AA8
 5        5 Bright yellow     #FAC80A
 6        6 Black             #1B2A34
 7        7 Dark green        #00852B
 8        8 Reddish brown     #5F3109
 9        9 Medium stone grey #969696
10       10 Dark stone grey   #646464
# ℹ 44 more rows
…
