rostrum.blog - Start an argument with R
…
Now we’ve unpeeled the next layer of the onion and can see that the sub-lists are made up of a vector, a data.frame and yet more lists.

For me, this is a nice way to get a sense of structure without seeing the entire content. I also think it beats the interactive list View() in RStudio as well, which can’t be opened to an arbitrary depth in one go1.

Carriage feed

print() is a ubiquitous function across most programming languages. In R, you might just type an object’s name to show it. Here’s a tibble with 21 rows to demonstrate.

chick_tbl <- tibble::as_tibble(ChickWeight[1:21, ])
chick_tbl

# A tibble: 21 × 4
   weight  Time Chick Diet 
    <dbl> <dbl> <ord> <fct>
 1     42     0 1     1    
 2     51     2 1     1    
 3     59     4 1     1    
 4     64     6 1     1    
 5     76     8 1     1    
 6     93    10 1     1    
 7    106    12 1     1    
 8    125    14 1     1    
 9    149    16 1     1    
10    171    18 1     1    
# ℹ 11 more rows
…
